2017-09-30 12:21:57,5,20.6224641,-103.4824857
2017-09-30 08:37:52,INICIO/FIN DE RUTA,20.6250125,-103.3798487
2017-09-30 08:39:40,2,20.6245401,-103.3719057
2017-09-30 08:40:29,2,20.6245401,-103.3719057
2017-09-30 08:42:50,2,20.6228307,-103.3657683
2017-09-30 08:44:16,INICIO/FIN DE RUTA,20.6228307,-103.3657683
2017-09-30 08:44:19,INICIO/FIN DE RUTA,20.6228307,-103.3657683
2017-09-30 08:44:19,INICIO/FIN DE RUTA,20.6228307,-103.3657683
2017-09-30 08:49:03,5,20.6208168,-103.3495237
2017-09-30 08:52:49,8,20.6221378,-103.346636
2017-09-30 09:07:53,5,20.6221378,-103.346636
2017-09-30 09:09:11,INICIO/FIN DE RUTA,20.6221378,-103.346636
2017-09-30 09:10:03,8,20.6221378,-103.346636
2017-09-30 09:11:21,5,20.6129284,-103.3430264
2017-09-30 09:12:08,8,20.6078739,-103.3423045
2017-09-30 09:19:47,5,20.5776889,-103.3314766
2017-09-30 09:25:48,8,20.5776889,-103.3314766
2017-09-30 09:28:02,8,20.5776889,-103.3314766
2017-09-30 09:28:06,INICIO/FIN DE RUTA,20.5776889,-103.3314766
2017-09-30 09:47:22,9,20.600824,-103.3354355
2017-09-30 09:47:43,8,20.6052797,-103.3373981
2017-09-30 09:48:31,9,20.6052797,-103.3373981
2017-09-30 09:48:33,INICIO/FIN DE RUTA,20.6052797,-103.3373981
2017-09-30 09:48:33,INICIO/FIN DE RUTA,20.6052797,-103.3373981
2017-09-30 09:50:39,8,20.6139291,-103.3393176
2017-09-30 09:51:53,INICIO/FIN DE RUTA,20.6214145,-103.3384407
2017-09-30 09:51:54,INICIO/FIN DE RUTA,20.6214145,-103.3384407
2017-09-30 09:51:54,INICIO/FIN DE RUTA,20.6214145,-103.3384407
2017-09-30 09:51:54,INICIO/FIN DE RUTA,20.6214145,-103.3384407
2017-09-30 09:51:54,INICIO/FIN DE RUTA,20.6214145,-103.3384407
2017-09-30 09:51:55,INICIO/FIN DE RUTA,20.6214145,-103.3384407
2017-09-30 09:51:55,INICIO/FIN DE RUTA,20.6214145,-103.3384407
2017-09-30 09:51:55,INICIO/FIN DE RUTA,20.6214145,-103.3384407
2017-09-30 09:51:55,INICIO/FIN DE RUTA,20.6214145,-103.3384407
2017-09-30 09:51:55,INICIO/FIN DE RUTA,20.6214145,-103.3384407
2017-09-30 09:51:56,INICIO/FIN DE RUTA,20.6214145,-103.3384407
2017-09-30 09:51:56,INICIO/FIN DE RUTA,20.6214145,-103.3384407
2017-09-30 09:51:56,INICIO/FIN DE RUTA,20.6214145,-103.3384407
2017-09-30 09:51:56,INICIO/FIN DE RUTA,20.6214145,-103.3384407
2017-09-30 09:51:57,INICIO/FIN DE RUTA,20.6214145,-103.3384407
2017-09-30 09:51:58,INICIO/FIN DE RUTA,20.6214145,-103.3384407
2017-09-30 09:51:58,INICIO/FIN DE RUTA,20.6214145,-103.3384407
2017-09-30 09:51:58,INICIO/FIN DE RUTA,20.6214145,-103.3384407
2017-09-30 09:52:11,INICIO/FIN DE RUTA,20.6214145,-103.3384407
2017-09-30 09:52:12,INICIO/FIN DE RUTA,20.6214145,-103.3384407
2017-09-30 09:52:12,INICIO/FIN DE RUTA,20.6214145,-103.3384407
2017-09-30 09:52:32,INICIO/FIN DE RUTA,20.6214145,-103.3384407
2017-09-30 09:52:32,INICIO/FIN DE RUTA,20.6214145,-103.3384407
2017-09-30 09:52:33,INICIO/FIN DE RUTA,20.6214145,-103.3384407
2017-09-30 09:52:42,1,20.6214145,-103.3384407
2017-09-30 09:53:05,1,20.622752,-103.337759
2017-09-30 09:54:20,1,20.6191731,-103.3383004
2017-09-30 09:54:45,1,20.6191731,-103.3383004
2017-09-30 09:56:37,1,20.6096983,-103.3398344
2017-09-30 09:57:38,1,20.6096983,-103.3398344
2017-09-30 09:57:52,1,20.6096983,-103.3398344
2017-09-30 09:58:24,1,20.6096983,-103.3398344
2017-09-30 09:58:24,1,20.6096983,-103.3398344
2017-09-30 09:59:23,1,20.6096983,-103.3398344
2017-09-30 09:59:53,1,20.6091506,-103.3409634
2017-09-30 10:00:13,1,20.6091506,-103.3409634
2017-09-30 10:02:48,1,20.6222648,-103.3451584
2017-09-30 10:03:34,1,20.6222648,-103.3451584
2017-09-30 10:04:25,1,20.6222648,-103.3451584
2017-09-30 10:05:01,1,20.6222648,-103.3451584
2017-09-30 10:05:30,1,20.6201086,-103.3517234
2017-09-30 10:06:14,1,20.6201086,-103.3517234
2017-09-30 10:06:51,1,20.6201086,-103.3517234
2017-09-30 10:07:21,1,20.6201086,-103.3517234
2017-09-30 10:08:42,1,20.6206407,-103.3584806
2017-09-30 10:08:50,1,20.6206407,-103.3584806
2017-09-30 10:08:53,1,20.6206407,-103.3584806
2017-09-30 10:09:06,1,20.6206407,-103.3584806
2017-09-30 10:09:19,1,20.6206407,-103.3584806
2017-09-30 10:10:03,1,20.620406,-103.3645387
2017-09-30 10:11:04,1,20.620406,-103.3645387
2017-09-30 10:11:48,1,20.620406,-103.3645387
2017-09-30 10:12:33,1,20.6217883,-103.3719396
2017-09-30 10:12:44,1,20.6217883,-103.3719396
2017-09-30 10:12:54,1,20.6217883,-103.3719396
2017-09-30 10:12:58,INICIO/FIN DE RUTA,20.6217883,-103.3719396
2017-09-30 10:13:00,INICIO/FIN DE RUTA,20.6217883,-103.3719396
2017-09-30 10:13:00,INICIO/FIN DE RUTA,20.6217883,-103.3719396
2017-09-30 10:13:00,INICIO/FIN DE RUTA,20.6217883,-103.3719396
2017-09-30 10:13:00,INICIO/FIN DE RUTA,20.6217883,-103.3719396
2017-09-30 10:13:00,INICIO/FIN DE RUTA,20.6217883,-103.3719396
2017-10-01 07:46:31,INICIO/FIN DE RUTA,20.611885,-103.3943707
2017-10-01 07:47:01,INICIO/FIN DE RUTA,20.611885,-103.3943707
2017-10-01 07:47:05,INICIO/FIN DE RUTA,20.611885,-103.3943707
2017-09-29 08:28:29,1,20.6224641,-103.4824857
2017-10-01 07:47:05,INICIO/FIN DE RUTA,20.611885,-103.3943707
